^C:\DEV\NDS\SSB\TRUNK\VS2010\NFLIB\DEBUG\CONSOLE.OBJ|C:\DEV\NDS\SSB\TRUNK\VS2010\NFLIB\DEBUG\NF_2D.OBJ|C:\DEV\NDS\SSB\TRUNK\VS2010\NFLIB\DEBUG\NF_3D.OBJ|C:\DEV\NDS\SSB\TRUNK\VS2010\NFLIB\DEBUG\NF_AFFINEBG.OBJ|C:\DEV\NDS\SSB\TRUNK\VS2010\NFLIB\DEBUG\NF_BASIC.OBJ|C:\DEV\NDS\SSB\TRUNK\VS2010\NFLIB\DEBUG\NF_BITMAPBG.OBJ|C:\DEV\NDS\SSB\TRUNK\VS2010\NFLIB\DEBUG\NF_COLISION.OBJ|C:\DEV\NDS\SSB\TRUNK\VS2010\NFLIB\DEBUG\NF_INPUT.OBJ|C:\DEV\NDS\SSB\TRUNK\VS2010\NFLIB\DEBUG\NF_MEDIA.OBJ|C:\DEV\NDS\SSB\TRUNK\VS2010\NFLIB\DEBUG\NF_MIXEDBG.OBJ|C:\DEV\NDS\SSB\TRUNK\VS2010\NFLIB\DEBUG\NF_SOUND.OBJ|C:\DEV\NDS\SSB\TRUNK\VS2010\NFLIB\DEBUG\NF_SPRITE256.OBJ|C:\DEV\NDS\SSB\TRUNK\VS2010\NFLIB\DEBUG\NF_SPRITE3D.OBJ|C:\DEV\NDS\SSB\TRUNK\VS2010\NFLIB\DEBUG\NF_TEXT.OBJ|C:\DEV\NDS\SSB\TRUNK\VS2010\NFLIB\DEBUG\NF_TEXT16.OBJ|C:\DEV\NDS\SSB\TRUNK\VS2010\NFLIB\DEBUG\NF_TILEDBG.OBJ|C:\DEV\NDS\SSB\TRUNK\VS2010\NFLIB\DEBUG\NF_WIFI.OBJ
/OUT:"C:\dev\nds\ssb\trunk\vs2010\Debug\nflib.lib" ws2_32.lib /NOLOGO Debug\nf_2d.obj
Debug\nf_3d.obj
Debug\nf_affinebg.obj
Debug\nf_basic.obj
Debug\nf_bitmapbg.obj
Debug\nf_colision.obj
Debug\console.obj
Debug\nf_input.obj
Debug\nf_media.obj
Debug\nf_mixedbg.obj
Debug\nf_sound.obj
Debug\nf_sprite256.obj
Debug\nf_sprite3d.obj
Debug\nf_text.obj
Debug\nf_text16.obj
Debug\nf_tiledbg.obj
Debug\nf_wifi.obj
