^C:\USERS\ALMAMU\DESKTOP\SMASH_TMP\SMASH\RENDER\X86_64_PC\SOURCE\GRAPHICS.CPP
C:\PROGRAM FILES (X86)\MICROSOFT VISUAL STUDIO 10.0\VC\BIN\3082\CLUI.DLL
C:\WINDOWS\GLOBALIZATION\SORTING\SORTDEFAULT.NLS
C:\WINDOWS\SYSTEM32\TZRES.DLL
C:\USERS\ALMAMU\DESKTOP\SMASH_TMP\SMASH\NFLIB\X86_64_PC\INCLUDE\NDS.H
C:\PROGRAM FILES (X86)\MICROSOFT SDKS\WINDOWS\V7.0A\INCLUDE\WINDOWS.H
C:\PROGRAM FILES (X86)\MICROSOFT SDKS\WINDOWS\V7.0A\INCLUDE\SDKDDKVER.H
C:\PROGRAM FILES (X86)\MICROSOFT VISUAL STUDIO 10.0\VC\INCLUDE\EXCPT.H
C:\PROGRAM FILES (X86)\MICROSOFT VISUAL STUDIO 10.0\VC\INCLUDE\CRTDEFS.H
C:\PROGRAM FILES (X86)\MICROSOFT VISUAL STUDIO 10.0\VC\INCLUDE\SAL.H
C:\PROGRAM FILES (X86)\MICROSOFT VISUAL STUDIO 10.0\VC\INCLUDE\CODEANALYSIS\SOURCEANNOTATIONS.H
C:\PROGRAM FILES (X86)\MICROSOFT VISUAL STUDIO 10.0\VC\INCLUDE\VADEFS.H
C:\PROGRAM FILES (X86)\MICROSOFT VISUAL STUDIO 10.0\VC\INCLUDE\STDARG.H
C:\PROGRAM FILES (X86)\MICROSOFT SDKS\WINDOWS\V7.0A\INCLUDE\WINDEF.H
C:\PROGRAM FILES (X86)\MICROSOFT SDKS\WINDOWS\V7.0A\INCLUDE\WINNT.H
C:\PROGRAM FILES (X86)\MICROSOFT VISUAL STUDIO 10.0\VC\INCLUDE\CTYPE.H
C:\PROGRAM FILES (X86)\MICROSOFT SDKS\WINDOWS\V7.0A\INCLUDE\SPECSTRINGS.H
C:\PROGRAM FILES (X86)\MICROSOFT SDKS\WINDOWS\V7.0A\INCLUDE\SAL_SUPP.H
C:\PROGRAM FILES (X86)\MICROSOFT SDKS\WINDOWS\V7.0A\INCLUDE\SPECSTRINGS_SUPP.H
C:\PROGRAM FILES (X86)\MICROSOFT SDKS\WINDOWS\V7.0A\INCLUDE\SPECSTRINGS_STRICT.H
C:\PROGRAM FILES (X86)\MICROSOFT SDKS\WINDOWS\V7.0A\INCLUDE\SPECSTRINGS_UNDEF.H
C:\PROGRAM FILES (X86)\MICROSOFT SDKS\WINDOWS\V7.0A\INCLUDE\DRIVERSPECS.H
C:\PROGRAM FILES (X86)\MICROSOFT SDKS\WINDOWS\V7.0A\INCLUDE\SDV_DRIVERSPECS.H
C:\PROGRAM FILES (X86)\MICROSOFT SDKS\WINDOWS\V7.0A\INCLUDE\KERNELSPECS.H
C:\PROGRAM FILES (X86)\MICROSOFT SDKS\WINDOWS\V7.0A\INCLUDE\BASETSD.H
C:\PROGRAM FILES (X86)\MICROSOFT SDKS\WINDOWS\V7.0A\INCLUDE\GUIDDEF.H
C:\PROGRAM FILES (X86)\MICROSOFT VISUAL STUDIO 10.0\VC\INCLUDE\STRING.H
C:\PROGRAM FILES (X86)\MICROSOFT SDKS\WINDOWS\V7.0A\INCLUDE\PSHPACK4.H
C:\PROGRAM FILES (X86)\MICROSOFT SDKS\WINDOWS\V7.0A\INCLUDE\POPPACK.H
C:\PROGRAM FILES (X86)\MICROSOFT SDKS\WINDOWS\V7.0A\INCLUDE\PSHPACK2.H
C:\PROGRAM FILES (X86)\MICROSOFT SDKS\WINDOWS\V7.0A\INCLUDE\PSHPACK8.H
C:\PROGRAM FILES (X86)\MICROSOFT SDKS\WINDOWS\V7.0A\INCLUDE\KTMTYPES.H
C:\PROGRAM FILES (X86)\MICROSOFT SDKS\WINDOWS\V7.0A\INCLUDE\WINBASE.H
C:\PROGRAM FILES (X86)\MICROSOFT SDKS\WINDOWS\V7.0A\INCLUDE\WINERROR.H
C:\PROGRAM FILES (X86)\MICROSOFT SDKS\WINDOWS\V7.0A\INCLUDE\WINGDI.H
C:\PROGRAM FILES (X86)\MICROSOFT SDKS\WINDOWS\V7.0A\INCLUDE\PSHPACK1.H
C:\PROGRAM FILES (X86)\MICROSOFT SDKS\WINDOWS\V7.0A\INCLUDE\WINUSER.H
C:\PROGRAM FILES (X86)\MICROSOFT SDKS\WINDOWS\V7.0A\INCLUDE\TVOUT.H
C:\PROGRAM FILES (X86)\MICROSOFT SDKS\WINDOWS\V7.0A\INCLUDE\WINNLS.H
C:\PROGRAM FILES (X86)\MICROSOFT SDKS\WINDOWS\V7.0A\INCLUDE\WINCON.H
C:\PROGRAM FILES (X86)\MICROSOFT SDKS\WINDOWS\V7.0A\INCLUDE\WINVER.H
C:\PROGRAM FILES (X86)\MICROSOFT SDKS\WINDOWS\V7.0A\INCLUDE\VERRSRC.H
C:\PROGRAM FILES (X86)\MICROSOFT SDKS\WINDOWS\V7.0A\INCLUDE\WINREG.H
C:\PROGRAM FILES (X86)\MICROSOFT SDKS\WINDOWS\V7.0A\INCLUDE\REASON.H
C:\PROGRAM FILES (X86)\MICROSOFT SDKS\WINDOWS\V7.0A\INCLUDE\WINNETWK.H
C:\PROGRAM FILES (X86)\MICROSOFT SDKS\WINDOWS\V7.0A\INCLUDE\WNNC.H
C:\PROGRAM FILES (X86)\MICROSOFT SDKS\WINDOWS\V7.0A\INCLUDE\STRALIGN.H
C:\PROGRAM FILES (X86)\MICROSOFT SDKS\WINDOWS\V7.0A\INCLUDE\WINSVC.H
C:\PROGRAM FILES (X86)\MICROSOFT SDKS\WINDOWS\V7.0A\INCLUDE\MCX.H
C:\PROGRAM FILES (X86)\MICROSOFT SDKS\WINDOWS\V7.0A\INCLUDE\IMM.H
C:\PROGRAM FILES (X86)\MICROSOFT SDKS\WINDOWS\V7.0A\INCLUDE\IME_CMODES.H
C:\USERS\ALMAMU\DESKTOP\SMASH_TMP\SMASH\NFLIB\X86_64_PC\INCLUDE\NDS\NDSTYPES.H
C:\PROGRAM FILES (X86)\MICROSOFT VISUAL STUDIO 10.0\VC\INCLUDE\STDINT.H
C:\PROGRAM FILES (X86)\MICROSOFT VISUAL STUDIO 10.0\VC\INCLUDE\YVALS.H
C:\PROGRAM FILES (X86)\MICROSOFT VISUAL STUDIO 10.0\VC\INCLUDE\USE_ANSI.H
C:\USERS\ALMAMU\DESKTOP\SMASH_TMP\SMASH\VS2010\WIN\INCLUDE\STDBOOL.H
C:\USERS\ALMAMU\DESKTOP\SMASH_TMP\SMASH\NFLIB\X86_64_PC\INCLUDE\NDS\INTERRUPTS.H
C:\USERS\ALMAMU\DESKTOP\SMASH_TMP\SMASH\NFLIB\X86_64_PC\INCLUDE\NDS\INPUT.H
C:\USERS\ALMAMU\DESKTOP\SMASH_TMP\SMASH\SDL\INCLUDE\SDL.H
C:\USERS\ALMAMU\DESKTOP\SMASH_TMP\SMASH\SDL\INCLUDE\SDL_MAIN.H
C:\USERS\ALMAMU\DESKTOP\SMASH_TMP\SMASH\SDL\INCLUDE\SDL_STDINC.H
C:\USERS\ALMAMU\DESKTOP\SMASH_TMP\SMASH\SDL\INCLUDE\SDL_CONFIG.H
C:\USERS\ALMAMU\DESKTOP\SMASH_TMP\SMASH\SDL\INCLUDE\SDL_PLATFORM.H
C:\USERS\ALMAMU\DESKTOP\SMASH_TMP\SMASH\SDL\INCLUDE\SDL_CONFIG_WIN32.H
C:\PROGRAM FILES (X86)\MICROSOFT VISUAL STUDIO 10.0\VC\INCLUDE\STDIO.H
C:\PROGRAM FILES (X86)\MICROSOFT VISUAL STUDIO 10.0\VC\INCLUDE\SWPRINTF.INL
C:\PROGRAM FILES (X86)\MICROSOFT VISUAL STUDIO 10.0\VC\INCLUDE\STDLIB.H
C:\PROGRAM FILES (X86)\MICROSOFT VISUAL STUDIO 10.0\VC\INCLUDE\LIMITS.H
C:\PROGRAM FILES (X86)\MICROSOFT VISUAL STUDIO 10.0\VC\INCLUDE\STDDEF.H
C:\USERS\ALMAMU\DESKTOP\SMASH_TMP\SMASH\SDL\INCLUDE\BEGIN_CODE.H
C:\PROGRAM FILES (X86)\MICROSOFT VISUAL STUDIO 10.0\VC\INCLUDE\MALLOC.H
C:\USERS\ALMAMU\DESKTOP\SMASH_TMP\SMASH\SDL\INCLUDE\CLOSE_CODE.H
C:\USERS\ALMAMU\DESKTOP\SMASH_TMP\SMASH\SDL\INCLUDE\SDL_AUDIO.H
C:\USERS\ALMAMU\DESKTOP\SMASH_TMP\SMASH\SDL\INCLUDE\SDL_ERROR.H
C:\USERS\ALMAMU\DESKTOP\SMASH_TMP\SMASH\SDL\INCLUDE\SDL_ENDIAN.H
C:\USERS\ALMAMU\DESKTOP\SMASH_TMP\SMASH\SDL\INCLUDE\SDL_MUTEX.H
C:\USERS\ALMAMU\DESKTOP\SMASH_TMP\SMASH\SDL\INCLUDE\SDL_THREAD.H
C:\USERS\ALMAMU\DESKTOP\SMASH_TMP\SMASH\SDL\INCLUDE\SDL_RWOPS.H
C:\USERS\ALMAMU\DESKTOP\SMASH_TMP\SMASH\SDL\INCLUDE\SDL_CDROM.H
C:\USERS\ALMAMU\DESKTOP\SMASH_TMP\SMASH\SDL\INCLUDE\SDL_CPUINFO.H
C:\USERS\ALMAMU\DESKTOP\SMASH_TMP\SMASH\SDL\INCLUDE\SDL_EVENTS.H
C:\USERS\ALMAMU\DESKTOP\SMASH_TMP\SMASH\SDL\INCLUDE\SDL_ACTIVE.H
C:\USERS\ALMAMU\DESKTOP\SMASH_TMP\SMASH\SDL\INCLUDE\SDL_KEYBOARD.H
C:\USERS\ALMAMU\DESKTOP\SMASH_TMP\SMASH\SDL\INCLUDE\SDL_KEYSYM.H
C:\USERS\ALMAMU\DESKTOP\SMASH_TMP\SMASH\SDL\INCLUDE\SDL_MOUSE.H
C:\USERS\ALMAMU\DESKTOP\SMASH_TMP\SMASH\SDL\INCLUDE\SDL_VIDEO.H
C:\USERS\ALMAMU\DESKTOP\SMASH_TMP\SMASH\SDL\INCLUDE\SDL_JOYSTICK.H
C:\USERS\ALMAMU\DESKTOP\SMASH_TMP\SMASH\SDL\INCLUDE\SDL_QUIT.H
C:\USERS\ALMAMU\DESKTOP\SMASH_TMP\SMASH\SDL\INCLUDE\SDL_LOADSO.H
C:\USERS\ALMAMU\DESKTOP\SMASH_TMP\SMASH\SDL\INCLUDE\SDL_TIMER.H
C:\USERS\ALMAMU\DESKTOP\SMASH_TMP\SMASH\SDL\INCLUDE\SDL_VERSION.H
C:\USERS\ALMAMU\DESKTOP\SMASH_TMP\SMASH\NFLIB\X86_64_PC\INCLUDE\NDS\DEBUG.H
C:\USERS\ALMAMU\DESKTOP\SMASH_TMP\SMASH\NFLIB\X86_64_PC\INCLUDE\NDS\ARM9\CONSOLE.H
C:\USERS\ALMAMU\DESKTOP\SMASH_TMP\SMASH\NFLIB\X86_64_PC\INCLUDE\NDS\ARM9\EXCEPTIONS.H
C:\USERS\ALMAMU\DESKTOP\SMASH_TMP\SMASH\NFLIB\X86_64_PC\INCLUDE\NDS\ARM9\INPUT.H
C:\USERS\ALMAMU\DESKTOP\SMASH_TMP\SMASH\NFLIB\X86_64_PC\INCLUDE\NDS\ARM9\SOUND.H
C:\USERS\ALMAMU\DESKTOP\SMASH_TMP\SMASH\NFLIB\X86_64_PC\INCLUDE\NDS\ARM9\SPRITE.H
C:\USERS\ALMAMU\DESKTOP\SMASH_TMP\SMASH\NFLIB\X86_64_PC\INCLUDE\NDS\ARM9\VIDEO.H
C:\USERS\ALMAMU\DESKTOP\SMASH_TMP\SMASH\RENDER\X86_64_PC\INCLUDE\GRAPHICS.H
C:\USERS\ALMAMU\DESKTOP\SMASH_TMP\SMASH\RENDER\INCLUDE\GRAPHICS_COMMON.H
C:\USERS\ALMAMU\DESKTOP\SMASH_TMP\SMASH\CORE\INCLUDE\COMMON.H
C:\USERS\ALMAMU\DESKTOP\SMASH_TMP\SMASH\NFLIB\INCLUDE\NF_LIB.H
C:\USERS\ALMAMU\DESKTOP\SMASH_TMP\SMASH\NFLIB\INCLUDE\NF_DEFINES.H
C:\USERS\ALMAMU\DESKTOP\SMASH_TMP\SMASH\NFLIB\INCLUDE\NF_BASIC.H
C:\USERS\ALMAMU\DESKTOP\SMASH_TMP\SMASH\NFLIB\INCLUDE\NF_DRAFT.H
C:\USERS\ALMAMU\DESKTOP\SMASH_TMP\SMASH\NFLIB\INCLUDE\NF_2D.H
C:\USERS\ALMAMU\DESKTOP\SMASH_TMP\SMASH\NFLIB\INCLUDE\NF_TILEDBG.H
C:\USERS\ALMAMU\DESKTOP\SMASH_TMP\SMASH\NFLIB\INCLUDE\NF_AFFINEBG.H
C:\USERS\ALMAMU\DESKTOP\SMASH_TMP\SMASH\NFLIB\INCLUDE\NF_BITMAPBG.H
C:\USERS\ALMAMU\DESKTOP\SMASH_TMP\SMASH\NFLIB\INCLUDE\NF_MIXEDBG.H
C:\USERS\ALMAMU\DESKTOP\SMASH_TMP\SMASH\NFLIB\INCLUDE\NF_SPRITE256.H
C:\USERS\ALMAMU\DESKTOP\SMASH_TMP\SMASH\NFLIB\INCLUDE\NF_TEXT.H
C:\USERS\ALMAMU\DESKTOP\SMASH_TMP\SMASH\NFLIB\INCLUDE\NF_TEXT16.H
C:\USERS\ALMAMU\DESKTOP\SMASH_TMP\SMASH\NFLIB\INCLUDE\NF_COLISION.H
C:\USERS\ALMAMU\DESKTOP\SMASH_TMP\SMASH\NFLIB\INCLUDE\NF_SOUND.H
C:\USERS\ALMAMU\DESKTOP\SMASH_TMP\SMASH\NFLIB\INCLUDE\NF_MEDIA.H
C:\USERS\ALMAMU\DESKTOP\SMASH_TMP\SMASH\NFLIB\INCLUDE\NF_3D.H
C:\USERS\ALMAMU\DESKTOP\SMASH_TMP\SMASH\NFLIB\INCLUDE\NF_SPRITE3D.H
C:\USERS\ALMAMU\DESKTOP\SMASH_TMP\SMASH\CORE\INCLUDE\MEMORY.H
C:\USERS\ALMAMU\DESKTOP\SMASH_TMP\SMASH\CORE\INCLUDE\STRINGS.H
C:\USERS\ALMAMU\DESKTOP\SMASH_TMP\SMASH\CORE\INCLUDE\FILESYSTEM.H
C:\USERS\ALMAMU\DESKTOP\SMASH_TMP\SMASH\CORE\INCLUDE\ASSETS.H
C:\USERS\ALMAMU\DESKTOP\SMASH_TMP\SMASH\CORE\INCLUDE\MESSAGES.H
^C:\DEVELOPMENT\SUPERSMASHBROSDS\RENDER\X86_64_PC\SOURCE\GRAPHICS.CPP
C:\PROGRAM FILES (X86)\MICROSOFT VISUAL STUDIO 10.0\VC\BIN\3082\CLUI.DLL
C:\WINDOWS\GLOBALIZATION\SORTING\SORTDEFAULT.NLS
C:\WINDOWS\SYSTEM32\TZRES.DLL
C:\DEVELOPMENT\SUPERSMASHBROSDS\NFLIB\X86_64_PC\INCLUDE\NDS.H
C:\PROGRAM FILES (X86)\MICROSOFT SDKS\WINDOWS\V7.0A\INCLUDE\WINDOWS.H
C:\PROGRAM FILES (X86)\MICROSOFT SDKS\WINDOWS\V7.0A\INCLUDE\SDKDDKVER.H
C:\PROGRAM FILES (X86)\MICROSOFT VISUAL STUDIO 10.0\VC\INCLUDE\EXCPT.H
C:\PROGRAM FILES (X86)\MICROSOFT VISUAL STUDIO 10.0\VC\INCLUDE\CRTDEFS.H
C:\PROGRAM FILES (X86)\MICROSOFT VISUAL STUDIO 10.0\VC\INCLUDE\SAL.H
C:\PROGRAM FILES (X86)\MICROSOFT VISUAL STUDIO 10.0\VC\INCLUDE\CODEANALYSIS\SOURCEANNOTATIONS.H
C:\PROGRAM FILES (X86)\MICROSOFT VISUAL STUDIO 10.0\VC\INCLUDE\VADEFS.H
C:\PROGRAM FILES (X86)\MICROSOFT VISUAL STUDIO 10.0\VC\INCLUDE\STDARG.H
C:\PROGRAM FILES (X86)\MICROSOFT SDKS\WINDOWS\V7.0A\INCLUDE\WINDEF.H
C:\PROGRAM FILES (X86)\MICROSOFT SDKS\WINDOWS\V7.0A\INCLUDE\WINNT.H
C:\PROGRAM FILES (X86)\MICROSOFT VISUAL STUDIO 10.0\VC\INCLUDE\CTYPE.H
C:\PROGRAM FILES (X86)\MICROSOFT SDKS\WINDOWS\V7.0A\INCLUDE\SPECSTRINGS.H
C:\PROGRAM FILES (X86)\MICROSOFT SDKS\WINDOWS\V7.0A\INCLUDE\SAL_SUPP.H
C:\PROGRAM FILES (X86)\MICROSOFT SDKS\WINDOWS\V7.0A\INCLUDE\SPECSTRINGS_SUPP.H
C:\PROGRAM FILES (X86)\MICROSOFT SDKS\WINDOWS\V7.0A\INCLUDE\SPECSTRINGS_STRICT.H
C:\PROGRAM FILES (X86)\MICROSOFT SDKS\WINDOWS\V7.0A\INCLUDE\SPECSTRINGS_UNDEF.H
C:\PROGRAM FILES (X86)\MICROSOFT SDKS\WINDOWS\V7.0A\INCLUDE\DRIVERSPECS.H
C:\PROGRAM FILES (X86)\MICROSOFT SDKS\WINDOWS\V7.0A\INCLUDE\SDV_DRIVERSPECS.H
C:\PROGRAM FILES (X86)\MICROSOFT SDKS\WINDOWS\V7.0A\INCLUDE\KERNELSPECS.H
C:\PROGRAM FILES (X86)\MICROSOFT SDKS\WINDOWS\V7.0A\INCLUDE\BASETSD.H
C:\PROGRAM FILES (X86)\MICROSOFT SDKS\WINDOWS\V7.0A\INCLUDE\GUIDDEF.H
C:\PROGRAM FILES (X86)\MICROSOFT VISUAL STUDIO 10.0\VC\INCLUDE\STRING.H
C:\PROGRAM FILES (X86)\MICROSOFT SDKS\WINDOWS\V7.0A\INCLUDE\PSHPACK4.H
C:\PROGRAM FILES (X86)\MICROSOFT SDKS\WINDOWS\V7.0A\INCLUDE\POPPACK.H
C:\PROGRAM FILES (X86)\MICROSOFT SDKS\WINDOWS\V7.0A\INCLUDE\PSHPACK2.H
C:\PROGRAM FILES (X86)\MICROSOFT SDKS\WINDOWS\V7.0A\INCLUDE\PSHPACK8.H
C:\PROGRAM FILES (X86)\MICROSOFT SDKS\WINDOWS\V7.0A\INCLUDE\KTMTYPES.H
C:\PROGRAM FILES (X86)\MICROSOFT SDKS\WINDOWS\V7.0A\INCLUDE\WINBASE.H
C:\PROGRAM FILES (X86)\MICROSOFT SDKS\WINDOWS\V7.0A\INCLUDE\WINERROR.H
C:\PROGRAM FILES (X86)\MICROSOFT SDKS\WINDOWS\V7.0A\INCLUDE\WINGDI.H
C:\PROGRAM FILES (X86)\MICROSOFT SDKS\WINDOWS\V7.0A\INCLUDE\PSHPACK1.H
C:\PROGRAM FILES (X86)\MICROSOFT SDKS\WINDOWS\V7.0A\INCLUDE\WINUSER.H
C:\PROGRAM FILES (X86)\MICROSOFT SDKS\WINDOWS\V7.0A\INCLUDE\TVOUT.H
C:\PROGRAM FILES (X86)\MICROSOFT SDKS\WINDOWS\V7.0A\INCLUDE\WINNLS.H
C:\PROGRAM FILES (X86)\MICROSOFT SDKS\WINDOWS\V7.0A\INCLUDE\WINCON.H
C:\PROGRAM FILES (X86)\MICROSOFT SDKS\WINDOWS\V7.0A\INCLUDE\WINVER.H
C:\PROGRAM FILES (X86)\MICROSOFT SDKS\WINDOWS\V7.0A\INCLUDE\VERRSRC.H
C:\PROGRAM FILES (X86)\MICROSOFT SDKS\WINDOWS\V7.0A\INCLUDE\WINREG.H
C:\PROGRAM FILES (X86)\MICROSOFT SDKS\WINDOWS\V7.0A\INCLUDE\REASON.H
C:\PROGRAM FILES (X86)\MICROSOFT SDKS\WINDOWS\V7.0A\INCLUDE\WINNETWK.H
C:\PROGRAM FILES (X86)\MICROSOFT SDKS\WINDOWS\V7.0A\INCLUDE\WNNC.H
C:\PROGRAM FILES (X86)\MICROSOFT SDKS\WINDOWS\V7.0A\INCLUDE\STRALIGN.H
C:\PROGRAM FILES (X86)\MICROSOFT SDKS\WINDOWS\V7.0A\INCLUDE\WINSVC.H
C:\PROGRAM FILES (X86)\MICROSOFT SDKS\WINDOWS\V7.0A\INCLUDE\MCX.H
C:\PROGRAM FILES (X86)\MICROSOFT SDKS\WINDOWS\V7.0A\INCLUDE\IMM.H
C:\PROGRAM FILES (X86)\MICROSOFT SDKS\WINDOWS\V7.0A\INCLUDE\IME_CMODES.H
C:\DEVELOPMENT\SUPERSMASHBROSDS\NFLIB\X86_64_PC\INCLUDE\NDS\NDSTYPES.H
C:\PROGRAM FILES (X86)\MICROSOFT VISUAL STUDIO 10.0\VC\INCLUDE\STDINT.H
C:\PROGRAM FILES (X86)\MICROSOFT VISUAL STUDIO 10.0\VC\INCLUDE\YVALS.H
C:\PROGRAM FILES (X86)\MICROSOFT VISUAL STUDIO 10.0\VC\INCLUDE\USE_ANSI.H
C:\DEVELOPMENT\SUPERSMASHBROSDS\VS2010\WIN\INCLUDE\STDBOOL.H
C:\DEVELOPMENT\SUPERSMASHBROSDS\NFLIB\X86_64_PC\INCLUDE\NDS\INTERRUPTS.H
C:\DEVELOPMENT\SUPERSMASHBROSDS\NFLIB\X86_64_PC\INCLUDE\NDS\INPUT.H
C:\DEVELOPMENT\SUPERSMASHBROSDS\SDL\INCLUDE\SDL.H
C:\DEVELOPMENT\SUPERSMASHBROSDS\SDL\INCLUDE\SDL_MAIN.H
C:\DEVELOPMENT\SUPERSMASHBROSDS\SDL\INCLUDE\SDL_STDINC.H
C:\DEVELOPMENT\SUPERSMASHBROSDS\SDL\INCLUDE\SDL_CONFIG.H
C:\DEVELOPMENT\SUPERSMASHBROSDS\SDL\INCLUDE\SDL_PLATFORM.H
C:\DEVELOPMENT\SUPERSMASHBROSDS\SDL\INCLUDE\SDL_CONFIG_WIN32.H
C:\PROGRAM FILES (X86)\MICROSOFT VISUAL STUDIO 10.0\VC\INCLUDE\STDIO.H
C:\PROGRAM FILES (X86)\MICROSOFT VISUAL STUDIO 10.0\VC\INCLUDE\SWPRINTF.INL
C:\PROGRAM FILES (X86)\MICROSOFT VISUAL STUDIO 10.0\VC\INCLUDE\STDLIB.H
C:\PROGRAM FILES (X86)\MICROSOFT VISUAL STUDIO 10.0\VC\INCLUDE\LIMITS.H
C:\PROGRAM FILES (X86)\MICROSOFT VISUAL STUDIO 10.0\VC\INCLUDE\STDDEF.H
C:\DEVELOPMENT\SUPERSMASHBROSDS\SDL\INCLUDE\BEGIN_CODE.H
C:\PROGRAM FILES (X86)\MICROSOFT VISUAL STUDIO 10.0\VC\INCLUDE\MALLOC.H
C:\DEVELOPMENT\SUPERSMASHBROSDS\SDL\INCLUDE\CLOSE_CODE.H
C:\DEVELOPMENT\SUPERSMASHBROSDS\SDL\INCLUDE\SDL_AUDIO.H
C:\DEVELOPMENT\SUPERSMASHBROSDS\SDL\INCLUDE\SDL_ERROR.H
C:\DEVELOPMENT\SUPERSMASHBROSDS\SDL\INCLUDE\SDL_ENDIAN.H
C:\DEVELOPMENT\SUPERSMASHBROSDS\SDL\INCLUDE\SDL_MUTEX.H
C:\DEVELOPMENT\SUPERSMASHBROSDS\SDL\INCLUDE\SDL_THREAD.H
C:\DEVELOPMENT\SUPERSMASHBROSDS\SDL\INCLUDE\SDL_RWOPS.H
C:\DEVELOPMENT\SUPERSMASHBROSDS\SDL\INCLUDE\SDL_CDROM.H
C:\DEVELOPMENT\SUPERSMASHBROSDS\SDL\INCLUDE\SDL_CPUINFO.H
C:\DEVELOPMENT\SUPERSMASHBROSDS\SDL\INCLUDE\SDL_EVENTS.H
C:\DEVELOPMENT\SUPERSMASHBROSDS\SDL\INCLUDE\SDL_ACTIVE.H
C:\DEVELOPMENT\SUPERSMASHBROSDS\SDL\INCLUDE\SDL_KEYBOARD.H
C:\DEVELOPMENT\SUPERSMASHBROSDS\SDL\INCLUDE\SDL_KEYSYM.H
C:\DEVELOPMENT\SUPERSMASHBROSDS\SDL\INCLUDE\SDL_MOUSE.H
C:\DEVELOPMENT\SUPERSMASHBROSDS\SDL\INCLUDE\SDL_VIDEO.H
C:\DEVELOPMENT\SUPERSMASHBROSDS\SDL\INCLUDE\SDL_JOYSTICK.H
C:\DEVELOPMENT\SUPERSMASHBROSDS\SDL\INCLUDE\SDL_QUIT.H
C:\DEVELOPMENT\SUPERSMASHBROSDS\SDL\INCLUDE\SDL_LOADSO.H
C:\DEVELOPMENT\SUPERSMASHBROSDS\SDL\INCLUDE\SDL_TIMER.H
C:\DEVELOPMENT\SUPERSMASHBROSDS\SDL\INCLUDE\SDL_VERSION.H
C:\DEVELOPMENT\SUPERSMASHBROSDS\NFLIB\X86_64_PC\INCLUDE\NDS\DEBUG.H
C:\DEVELOPMENT\SUPERSMASHBROSDS\NFLIB\X86_64_PC\INCLUDE\NDS\ARM9\CONSOLE.H
C:\DEVELOPMENT\SUPERSMASHBROSDS\NFLIB\X86_64_PC\INCLUDE\NDS\ARM9\EXCEPTIONS.H
C:\DEVELOPMENT\SUPERSMASHBROSDS\NFLIB\X86_64_PC\INCLUDE\NDS\ARM9\INPUT.H
C:\DEVELOPMENT\SUPERSMASHBROSDS\NFLIB\X86_64_PC\INCLUDE\NDS\ARM9\SOUND.H
C:\DEVELOPMENT\SUPERSMASHBROSDS\NFLIB\X86_64_PC\INCLUDE\NDS\ARM9\SPRITE.H
C:\DEVELOPMENT\SUPERSMASHBROSDS\NFLIB\X86_64_PC\INCLUDE\NDS\ARM9\VIDEO.H
C:\DEVELOPMENT\SUPERSMASHBROSDS\RENDER\X86_64_PC\INCLUDE\GRAPHICS.H
C:\DEVELOPMENT\SUPERSMASHBROSDS\RENDER\INCLUDE\GRAPHICS_COMMON.H
C:\DEVELOPMENT\SUPERSMASHBROSDS\CORE\INCLUDE\COMMON.H
C:\DEVELOPMENT\SUPERSMASHBROSDS\NFLIB\INCLUDE\NF_LIB.H
C:\DEVELOPMENT\SUPERSMASHBROSDS\NFLIB\INCLUDE\NF_DEFINES.H
C:\DEVELOPMENT\SUPERSMASHBROSDS\NFLIB\INCLUDE\NF_BASIC.H
C:\DEVELOPMENT\SUPERSMASHBROSDS\NFLIB\INCLUDE\NF_DRAFT.H
C:\DEVELOPMENT\SUPERSMASHBROSDS\NFLIB\INCLUDE\NF_2D.H
C:\DEVELOPMENT\SUPERSMASHBROSDS\NFLIB\INCLUDE\NF_TILEDBG.H
C:\DEVELOPMENT\SUPERSMASHBROSDS\NFLIB\INCLUDE\NF_AFFINEBG.H
C:\DEVELOPMENT\SUPERSMASHBROSDS\NFLIB\INCLUDE\NF_BITMAPBG.H
C:\DEVELOPMENT\SUPERSMASHBROSDS\NFLIB\INCLUDE\NF_MIXEDBG.H
C:\DEVELOPMENT\SUPERSMASHBROSDS\NFLIB\INCLUDE\NF_SPRITE256.H
C:\DEVELOPMENT\SUPERSMASHBROSDS\NFLIB\INCLUDE\NF_TEXT.H
C:\DEVELOPMENT\SUPERSMASHBROSDS\NFLIB\INCLUDE\NF_TEXT16.H
C:\DEVELOPMENT\SUPERSMASHBROSDS\NFLIB\INCLUDE\NF_COLISION.H
C:\DEVELOPMENT\SUPERSMASHBROSDS\NFLIB\INCLUDE\NF_SOUND.H
C:\DEVELOPMENT\SUPERSMASHBROSDS\NFLIB\INCLUDE\NF_MEDIA.H
C:\DEVELOPMENT\SUPERSMASHBROSDS\NFLIB\INCLUDE\NF_3D.H
C:\DEVELOPMENT\SUPERSMASHBROSDS\NFLIB\INCLUDE\NF_SPRITE3D.H
C:\DEVELOPMENT\SUPERSMASHBROSDS\CORE\INCLUDE\MEMORY.H
C:\DEVELOPMENT\SUPERSMASHBROSDS\CORE\INCLUDE\STRINGS.H
C:\DEVELOPMENT\SUPERSMASHBROSDS\CORE\INCLUDE\FILESYSTEM.H
C:\DEVELOPMENT\SUPERSMASHBROSDS\CORE\INCLUDE\ASSETS.H
C:\DEVELOPMENT\SUPERSMASHBROSDS\CORE\INCLUDE\MESSAGES.H
^C:\DEVELOPMENT\PRIVATE\SVN\SSB\RENDER\X86_64_PC\SOURCE\GRAPHICS.CPP
C:\PROGRAM FILES (X86)\MICROSOFT VISUAL STUDIO 10.0\VC\BIN\3082\CLUI.DLL
C:\WINDOWS\GLOBALIZATION\SORTING\SORTDEFAULT.NLS
C:\WINDOWS\SYSTEM32\TZRES.DLL
C:\DEVELOPMENT\PRIVATE\SVN\SSB\NFLIB\X86_64_PC\INCLUDE\NDS.H
C:\PROGRAM FILES (X86)\MICROSOFT SDKS\WINDOWS\V7.0A\INCLUDE\WINDOWS.H
C:\PROGRAM FILES (X86)\MICROSOFT SDKS\WINDOWS\V7.0A\INCLUDE\SDKDDKVER.H
C:\PROGRAM FILES (X86)\MICROSOFT VISUAL STUDIO 10.0\VC\INCLUDE\EXCPT.H
C:\PROGRAM FILES (X86)\MICROSOFT VISUAL STUDIO 10.0\VC\INCLUDE\CRTDEFS.H
C:\PROGRAM FILES (X86)\MICROSOFT VISUAL STUDIO 10.0\VC\INCLUDE\SAL.H
C:\PROGRAM FILES (X86)\MICROSOFT VISUAL STUDIO 10.0\VC\INCLUDE\CODEANALYSIS\SOURCEANNOTATIONS.H
C:\PROGRAM FILES (X86)\MICROSOFT VISUAL STUDIO 10.0\VC\INCLUDE\VADEFS.H
C:\PROGRAM FILES (X86)\MICROSOFT VISUAL STUDIO 10.0\VC\INCLUDE\STDARG.H
C:\PROGRAM FILES (X86)\MICROSOFT SDKS\WINDOWS\V7.0A\INCLUDE\WINDEF.H
C:\PROGRAM FILES (X86)\MICROSOFT SDKS\WINDOWS\V7.0A\INCLUDE\WINNT.H
C:\PROGRAM FILES (X86)\MICROSOFT VISUAL STUDIO 10.0\VC\INCLUDE\CTYPE.H
C:\PROGRAM FILES (X86)\MICROSOFT SDKS\WINDOWS\V7.0A\INCLUDE\SPECSTRINGS.H
C:\PROGRAM FILES (X86)\MICROSOFT SDKS\WINDOWS\V7.0A\INCLUDE\SAL_SUPP.H
C:\PROGRAM FILES (X86)\MICROSOFT SDKS\WINDOWS\V7.0A\INCLUDE\SPECSTRINGS_SUPP.H
C:\PROGRAM FILES (X86)\MICROSOFT SDKS\WINDOWS\V7.0A\INCLUDE\SPECSTRINGS_STRICT.H
C:\PROGRAM FILES (X86)\MICROSOFT SDKS\WINDOWS\V7.0A\INCLUDE\SPECSTRINGS_UNDEF.H
C:\PROGRAM FILES (X86)\MICROSOFT SDKS\WINDOWS\V7.0A\INCLUDE\DRIVERSPECS.H
C:\PROGRAM FILES (X86)\MICROSOFT SDKS\WINDOWS\V7.0A\INCLUDE\SDV_DRIVERSPECS.H
C:\PROGRAM FILES (X86)\MICROSOFT SDKS\WINDOWS\V7.0A\INCLUDE\KERNELSPECS.H
C:\PROGRAM FILES (X86)\MICROSOFT SDKS\WINDOWS\V7.0A\INCLUDE\BASETSD.H
C:\PROGRAM FILES (X86)\MICROSOFT SDKS\WINDOWS\V7.0A\INCLUDE\GUIDDEF.H
C:\PROGRAM FILES (X86)\MICROSOFT VISUAL STUDIO 10.0\VC\INCLUDE\STRING.H
C:\PROGRAM FILES (X86)\MICROSOFT SDKS\WINDOWS\V7.0A\INCLUDE\PSHPACK4.H
C:\PROGRAM FILES (X86)\MICROSOFT SDKS\WINDOWS\V7.0A\INCLUDE\POPPACK.H
C:\PROGRAM FILES (X86)\MICROSOFT SDKS\WINDOWS\V7.0A\INCLUDE\PSHPACK2.H
C:\PROGRAM FILES (X86)\MICROSOFT SDKS\WINDOWS\V7.0A\INCLUDE\PSHPACK8.H
C:\PROGRAM FILES (X86)\MICROSOFT SDKS\WINDOWS\V7.0A\INCLUDE\KTMTYPES.H
C:\PROGRAM FILES (X86)\MICROSOFT SDKS\WINDOWS\V7.0A\INCLUDE\WINBASE.H
C:\PROGRAM FILES (X86)\MICROSOFT SDKS\WINDOWS\V7.0A\INCLUDE\WINERROR.H
C:\PROGRAM FILES (X86)\MICROSOFT SDKS\WINDOWS\V7.0A\INCLUDE\WINGDI.H
C:\PROGRAM FILES (X86)\MICROSOFT SDKS\WINDOWS\V7.0A\INCLUDE\PSHPACK1.H
C:\PROGRAM FILES (X86)\MICROSOFT SDKS\WINDOWS\V7.0A\INCLUDE\WINUSER.H
C:\PROGRAM FILES (X86)\MICROSOFT SDKS\WINDOWS\V7.0A\INCLUDE\TVOUT.H
C:\PROGRAM FILES (X86)\MICROSOFT SDKS\WINDOWS\V7.0A\INCLUDE\WINNLS.H
C:\PROGRAM FILES (X86)\MICROSOFT SDKS\WINDOWS\V7.0A\INCLUDE\WINCON.H
C:\PROGRAM FILES (X86)\MICROSOFT SDKS\WINDOWS\V7.0A\INCLUDE\WINVER.H
C:\PROGRAM FILES (X86)\MICROSOFT SDKS\WINDOWS\V7.0A\INCLUDE\VERRSRC.H
C:\PROGRAM FILES (X86)\MICROSOFT SDKS\WINDOWS\V7.0A\INCLUDE\WINREG.H
C:\PROGRAM FILES (X86)\MICROSOFT SDKS\WINDOWS\V7.0A\INCLUDE\REASON.H
C:\PROGRAM FILES (X86)\MICROSOFT SDKS\WINDOWS\V7.0A\INCLUDE\WINNETWK.H
C:\PROGRAM FILES (X86)\MICROSOFT SDKS\WINDOWS\V7.0A\INCLUDE\WNNC.H
C:\PROGRAM FILES (X86)\MICROSOFT SDKS\WINDOWS\V7.0A\INCLUDE\STRALIGN.H
C:\PROGRAM FILES (X86)\MICROSOFT SDKS\WINDOWS\V7.0A\INCLUDE\WINSVC.H
C:\PROGRAM FILES (X86)\MICROSOFT SDKS\WINDOWS\V7.0A\INCLUDE\MCX.H
C:\PROGRAM FILES (X86)\MICROSOFT SDKS\WINDOWS\V7.0A\INCLUDE\IMM.H
C:\PROGRAM FILES (X86)\MICROSOFT SDKS\WINDOWS\V7.0A\INCLUDE\IME_CMODES.H
C:\DEVELOPMENT\PRIVATE\SVN\SSB\NFLIB\X86_64_PC\INCLUDE\NDS\NDSTYPES.H
C:\PROGRAM FILES (X86)\MICROSOFT VISUAL STUDIO 10.0\VC\INCLUDE\STDINT.H
C:\PROGRAM FILES (X86)\MICROSOFT VISUAL STUDIO 10.0\VC\INCLUDE\YVALS.H
C:\PROGRAM FILES (X86)\MICROSOFT VISUAL STUDIO 10.0\VC\INCLUDE\USE_ANSI.H
C:\DEVELOPMENT\PRIVATE\SVN\SSB\VS2010\WIN\INCLUDE\STDBOOL.H
C:\DEVELOPMENT\PRIVATE\SVN\SSB\NFLIB\X86_64_PC\INCLUDE\NDS\INTERRUPTS.H
C:\DEVELOPMENT\PRIVATE\SVN\SSB\NFLIB\X86_64_PC\INCLUDE\NDS\INPUT.H
C:\DEVELOPMENT\PRIVATE\SVN\SSB\SDL\INCLUDE\SDL.H
C:\DEVELOPMENT\PRIVATE\SVN\SSB\SDL\INCLUDE\SDL_MAIN.H
C:\DEVELOPMENT\PRIVATE\SVN\SSB\SDL\INCLUDE\SDL_STDINC.H
C:\DEVELOPMENT\PRIVATE\SVN\SSB\SDL\INCLUDE\SDL_CONFIG.H
C:\DEVELOPMENT\PRIVATE\SVN\SSB\SDL\INCLUDE\SDL_PLATFORM.H
C:\DEVELOPMENT\PRIVATE\SVN\SSB\SDL\INCLUDE\SDL_CONFIG_WIN32.H
C:\PROGRAM FILES (X86)\MICROSOFT VISUAL STUDIO 10.0\VC\INCLUDE\STDIO.H
C:\PROGRAM FILES (X86)\MICROSOFT VISUAL STUDIO 10.0\VC\INCLUDE\SWPRINTF.INL
C:\PROGRAM FILES (X86)\MICROSOFT VISUAL STUDIO 10.0\VC\INCLUDE\STDLIB.H
C:\PROGRAM FILES (X86)\MICROSOFT VISUAL STUDIO 10.0\VC\INCLUDE\LIMITS.H
C:\PROGRAM FILES (X86)\MICROSOFT VISUAL STUDIO 10.0\VC\INCLUDE\STDDEF.H
C:\DEVELOPMENT\PRIVATE\SVN\SSB\SDL\INCLUDE\BEGIN_CODE.H
C:\PROGRAM FILES (X86)\MICROSOFT VISUAL STUDIO 10.0\VC\INCLUDE\MALLOC.H
C:\DEVELOPMENT\PRIVATE\SVN\SSB\SDL\INCLUDE\CLOSE_CODE.H
C:\DEVELOPMENT\PRIVATE\SVN\SSB\SDL\INCLUDE\SDL_AUDIO.H
C:\DEVELOPMENT\PRIVATE\SVN\SSB\SDL\INCLUDE\SDL_ERROR.H
C:\DEVELOPMENT\PRIVATE\SVN\SSB\SDL\INCLUDE\SDL_ENDIAN.H
C:\DEVELOPMENT\PRIVATE\SVN\SSB\SDL\INCLUDE\SDL_MUTEX.H
C:\DEVELOPMENT\PRIVATE\SVN\SSB\SDL\INCLUDE\SDL_THREAD.H
C:\DEVELOPMENT\PRIVATE\SVN\SSB\SDL\INCLUDE\SDL_RWOPS.H
C:\DEVELOPMENT\PRIVATE\SVN\SSB\SDL\INCLUDE\SDL_CDROM.H
C:\DEVELOPMENT\PRIVATE\SVN\SSB\SDL\INCLUDE\SDL_CPUINFO.H
C:\DEVELOPMENT\PRIVATE\SVN\SSB\SDL\INCLUDE\SDL_EVENTS.H
C:\DEVELOPMENT\PRIVATE\SVN\SSB\SDL\INCLUDE\SDL_ACTIVE.H
C:\DEVELOPMENT\PRIVATE\SVN\SSB\SDL\INCLUDE\SDL_KEYBOARD.H
C:\DEVELOPMENT\PRIVATE\SVN\SSB\SDL\INCLUDE\SDL_KEYSYM.H
C:\DEVELOPMENT\PRIVATE\SVN\SSB\SDL\INCLUDE\SDL_MOUSE.H
C:\DEVELOPMENT\PRIVATE\SVN\SSB\SDL\INCLUDE\SDL_VIDEO.H
C:\DEVELOPMENT\PRIVATE\SVN\SSB\SDL\INCLUDE\SDL_JOYSTICK.H
C:\DEVELOPMENT\PRIVATE\SVN\SSB\SDL\INCLUDE\SDL_QUIT.H
C:\DEVELOPMENT\PRIVATE\SVN\SSB\SDL\INCLUDE\SDL_LOADSO.H
C:\DEVELOPMENT\PRIVATE\SVN\SSB\SDL\INCLUDE\SDL_TIMER.H
C:\DEVELOPMENT\PRIVATE\SVN\SSB\SDL\INCLUDE\SDL_VERSION.H
C:\DEVELOPMENT\PRIVATE\SVN\SSB\NFLIB\X86_64_PC\INCLUDE\NDS\DEBUG.H
C:\DEVELOPMENT\PRIVATE\SVN\SSB\NFLIB\X86_64_PC\INCLUDE\NDS\ARM9\CONSOLE.H
C:\DEVELOPMENT\PRIVATE\SVN\SSB\NFLIB\X86_64_PC\INCLUDE\NDS\ARM9\EXCEPTIONS.H
C:\DEVELOPMENT\PRIVATE\SVN\SSB\NFLIB\X86_64_PC\INCLUDE\NDS\ARM9\INPUT.H
C:\DEVELOPMENT\PRIVATE\SVN\SSB\NFLIB\X86_64_PC\INCLUDE\NDS\ARM9\SOUND.H
C:\DEVELOPMENT\PRIVATE\SVN\SSB\NFLIB\X86_64_PC\INCLUDE\NDS\ARM9\SPRITE.H
C:\DEVELOPMENT\PRIVATE\SVN\SSB\NFLIB\X86_64_PC\INCLUDE\NDS\ARM9\VIDEO.H
C:\DEVELOPMENT\PRIVATE\SVN\SSB\RENDER\X86_64_PC\INCLUDE\GRAPHICS.H
C:\DEVELOPMENT\PRIVATE\SVN\SSB\RENDER\INCLUDE\GRAPHICS_COMMON.H
C:\DEVELOPMENT\PRIVATE\SVN\SSB\CORE\INCLUDE\COMMON.H
C:\DEVELOPMENT\PRIVATE\SVN\SSB\NFLIB\INCLUDE\NF_LIB.H
C:\DEVELOPMENT\PRIVATE\SVN\SSB\NFLIB\INCLUDE\NF_DEFINES.H
C:\DEVELOPMENT\PRIVATE\SVN\SSB\NFLIB\INCLUDE\NF_BASIC.H
C:\DEVELOPMENT\PRIVATE\SVN\SSB\NFLIB\INCLUDE\NF_DRAFT.H
C:\DEVELOPMENT\PRIVATE\SVN\SSB\NFLIB\INCLUDE\NF_2D.H
C:\DEVELOPMENT\PRIVATE\SVN\SSB\NFLIB\INCLUDE\NF_TILEDBG.H
C:\DEVELOPMENT\PRIVATE\SVN\SSB\NFLIB\INCLUDE\NF_AFFINEBG.H
C:\DEVELOPMENT\PRIVATE\SVN\SSB\NFLIB\INCLUDE\NF_BITMAPBG.H
C:\DEVELOPMENT\PRIVATE\SVN\SSB\NFLIB\INCLUDE\NF_MIXEDBG.H
C:\DEVELOPMENT\PRIVATE\SVN\SSB\NFLIB\INCLUDE\NF_SPRITE256.H
C:\DEVELOPMENT\PRIVATE\SVN\SSB\NFLIB\INCLUDE\NF_TEXT.H
C:\DEVELOPMENT\PRIVATE\SVN\SSB\NFLIB\INCLUDE\NF_TEXT16.H
C:\DEVELOPMENT\PRIVATE\SVN\SSB\NFLIB\INCLUDE\NF_COLISION.H
C:\DEVELOPMENT\PRIVATE\SVN\SSB\NFLIB\INCLUDE\NF_SOUND.H
C:\DEVELOPMENT\PRIVATE\SVN\SSB\NFLIB\INCLUDE\NF_MEDIA.H
C:\DEVELOPMENT\PRIVATE\SVN\SSB\NFLIB\INCLUDE\NF_3D.H
C:\DEVELOPMENT\PRIVATE\SVN\SSB\NFLIB\INCLUDE\NF_SPRITE3D.H
C:\DEVELOPMENT\PRIVATE\SVN\SSB\CORE\INCLUDE\MEMORY.H
C:\DEVELOPMENT\PRIVATE\SVN\SSB\CORE\INCLUDE\STRINGS.H
C:\DEVELOPMENT\PRIVATE\SVN\SSB\CORE\INCLUDE\FILESYSTEM.H
C:\DEVELOPMENT\PRIVATE\SVN\SSB\CORE\INCLUDE\ASSETS.H
C:\DEVELOPMENT\PRIVATE\SVN\SSB\CORE\INCLUDE\MESSAGES.H
^D:\PARA REVISAR\REVISAR2\DEVELOPMENT\PRIVATE\SVN\SSB\RENDER\X86_64_PC\SOURCE\GRAPHICS.CPP
C:\PROGRAM FILES (X86)\MICROSOFT VISUAL STUDIO 10.0\VC\BIN\3082\CLUI.DLL
C:\WINDOWS\GLOBALIZATION\SORTING\SORTDEFAULT.NLS
C:\WINDOWS\SYSTEM32\TZRES.DLL
D:\PARA REVISAR\REVISAR2\DEVELOPMENT\PRIVATE\SVN\SSB\NFLIB\X86_64_PC\INCLUDE\NDS.H
C:\PROGRAM FILES (X86)\MICROSOFT SDKS\WINDOWS\V7.0A\INCLUDE\WINDOWS.H
C:\PROGRAM FILES (X86)\MICROSOFT SDKS\WINDOWS\V7.0A\INCLUDE\SDKDDKVER.H
C:\PROGRAM FILES (X86)\MICROSOFT VISUAL STUDIO 10.0\VC\INCLUDE\EXCPT.H
C:\PROGRAM FILES (X86)\MICROSOFT VISUAL STUDIO 10.0\VC\INCLUDE\CRTDEFS.H
C:\PROGRAM FILES (X86)\MICROSOFT VISUAL STUDIO 10.0\VC\INCLUDE\SAL.H
C:\PROGRAM FILES (X86)\MICROSOFT VISUAL STUDIO 10.0\VC\INCLUDE\CODEANALYSIS\SOURCEANNOTATIONS.H
C:\PROGRAM FILES (X86)\MICROSOFT VISUAL STUDIO 10.0\VC\INCLUDE\VADEFS.H
C:\PROGRAM FILES (X86)\MICROSOFT VISUAL STUDIO 10.0\VC\INCLUDE\STDARG.H
C:\PROGRAM FILES (X86)\MICROSOFT SDKS\WINDOWS\V7.0A\INCLUDE\WINDEF.H
C:\PROGRAM FILES (X86)\MICROSOFT SDKS\WINDOWS\V7.0A\INCLUDE\WINNT.H
C:\PROGRAM FILES (X86)\MICROSOFT VISUAL STUDIO 10.0\VC\INCLUDE\CTYPE.H
C:\PROGRAM FILES (X86)\MICROSOFT SDKS\WINDOWS\V7.0A\INCLUDE\SPECSTRINGS.H
C:\PROGRAM FILES (X86)\MICROSOFT SDKS\WINDOWS\V7.0A\INCLUDE\SAL_SUPP.H
C:\PROGRAM FILES (X86)\MICROSOFT SDKS\WINDOWS\V7.0A\INCLUDE\SPECSTRINGS_SUPP.H
C:\PROGRAM FILES (X86)\MICROSOFT SDKS\WINDOWS\V7.0A\INCLUDE\SPECSTRINGS_STRICT.H
C:\PROGRAM FILES (X86)\MICROSOFT SDKS\WINDOWS\V7.0A\INCLUDE\SPECSTRINGS_UNDEF.H
C:\PROGRAM FILES (X86)\MICROSOFT SDKS\WINDOWS\V7.0A\INCLUDE\DRIVERSPECS.H
C:\PROGRAM FILES (X86)\MICROSOFT SDKS\WINDOWS\V7.0A\INCLUDE\SDV_DRIVERSPECS.H
C:\PROGRAM FILES (X86)\MICROSOFT SDKS\WINDOWS\V7.0A\INCLUDE\KERNELSPECS.H
C:\PROGRAM FILES (X86)\MICROSOFT SDKS\WINDOWS\V7.0A\INCLUDE\BASETSD.H
C:\PROGRAM FILES (X86)\MICROSOFT SDKS\WINDOWS\V7.0A\INCLUDE\GUIDDEF.H
C:\PROGRAM FILES (X86)\MICROSOFT VISUAL STUDIO 10.0\VC\INCLUDE\STRING.H
C:\PROGRAM FILES (X86)\MICROSOFT SDKS\WINDOWS\V7.0A\INCLUDE\PSHPACK4.H
C:\PROGRAM FILES (X86)\MICROSOFT SDKS\WINDOWS\V7.0A\INCLUDE\POPPACK.H
C:\PROGRAM FILES (X86)\MICROSOFT SDKS\WINDOWS\V7.0A\INCLUDE\PSHPACK2.H
C:\PROGRAM FILES (X86)\MICROSOFT SDKS\WINDOWS\V7.0A\INCLUDE\PSHPACK8.H
C:\PROGRAM FILES (X86)\MICROSOFT SDKS\WINDOWS\V7.0A\INCLUDE\KTMTYPES.H
C:\PROGRAM FILES (X86)\MICROSOFT SDKS\WINDOWS\V7.0A\INCLUDE\WINBASE.H
C:\PROGRAM FILES (X86)\MICROSOFT SDKS\WINDOWS\V7.0A\INCLUDE\WINERROR.H
C:\PROGRAM FILES (X86)\MICROSOFT SDKS\WINDOWS\V7.0A\INCLUDE\WINGDI.H
C:\PROGRAM FILES (X86)\MICROSOFT SDKS\WINDOWS\V7.0A\INCLUDE\PSHPACK1.H
C:\PROGRAM FILES (X86)\MICROSOFT SDKS\WINDOWS\V7.0A\INCLUDE\WINUSER.H
C:\PROGRAM FILES (X86)\MICROSOFT SDKS\WINDOWS\V7.0A\INCLUDE\TVOUT.H
C:\PROGRAM FILES (X86)\MICROSOFT SDKS\WINDOWS\V7.0A\INCLUDE\WINNLS.H
C:\PROGRAM FILES (X86)\MICROSOFT SDKS\WINDOWS\V7.0A\INCLUDE\WINCON.H
C:\PROGRAM FILES (X86)\MICROSOFT SDKS\WINDOWS\V7.0A\INCLUDE\WINVER.H
C:\PROGRAM FILES (X86)\MICROSOFT SDKS\WINDOWS\V7.0A\INCLUDE\VERRSRC.H
C:\PROGRAM FILES (X86)\MICROSOFT SDKS\WINDOWS\V7.0A\INCLUDE\WINREG.H
C:\PROGRAM FILES (X86)\MICROSOFT SDKS\WINDOWS\V7.0A\INCLUDE\REASON.H
C:\PROGRAM FILES (X86)\MICROSOFT SDKS\WINDOWS\V7.0A\INCLUDE\WINNETWK.H
C:\PROGRAM FILES (X86)\MICROSOFT SDKS\WINDOWS\V7.0A\INCLUDE\WNNC.H
C:\PROGRAM FILES (X86)\MICROSOFT SDKS\WINDOWS\V7.0A\INCLUDE\STRALIGN.H
C:\PROGRAM FILES (X86)\MICROSOFT SDKS\WINDOWS\V7.0A\INCLUDE\WINSVC.H
C:\PROGRAM FILES (X86)\MICROSOFT SDKS\WINDOWS\V7.0A\INCLUDE\MCX.H
C:\PROGRAM FILES (X86)\MICROSOFT SDKS\WINDOWS\V7.0A\INCLUDE\IMM.H
C:\PROGRAM FILES (X86)\MICROSOFT SDKS\WINDOWS\V7.0A\INCLUDE\IME_CMODES.H
D:\PARA REVISAR\REVISAR2\DEVELOPMENT\PRIVATE\SVN\SSB\NFLIB\X86_64_PC\INCLUDE\NDS\NDSTYPES.H
C:\PROGRAM FILES (X86)\MICROSOFT VISUAL STUDIO 10.0\VC\INCLUDE\STDINT.H
C:\PROGRAM FILES (X86)\MICROSOFT VISUAL STUDIO 10.0\VC\INCLUDE\YVALS.H
C:\PROGRAM FILES (X86)\MICROSOFT VISUAL STUDIO 10.0\VC\INCLUDE\USE_ANSI.H
D:\PARA REVISAR\REVISAR2\DEVELOPMENT\PRIVATE\SVN\SSB\VS2010\WIN\INCLUDE\STDBOOL.H
D:\PARA REVISAR\REVISAR2\DEVELOPMENT\PRIVATE\SVN\SSB\NFLIB\X86_64_PC\INCLUDE\NDS\INTERRUPTS.H
D:\PARA REVISAR\REVISAR2\DEVELOPMENT\PRIVATE\SVN\SSB\NFLIB\X86_64_PC\INCLUDE\NDS\INPUT.H
D:\PARA REVISAR\REVISAR2\DEVELOPMENT\PRIVATE\SVN\SSB\SDL\INCLUDE\SDL.H
D:\PARA REVISAR\REVISAR2\DEVELOPMENT\PRIVATE\SVN\SSB\SDL\INCLUDE\SDL_MAIN.H
D:\PARA REVISAR\REVISAR2\DEVELOPMENT\PRIVATE\SVN\SSB\SDL\INCLUDE\SDL_STDINC.H
D:\PARA REVISAR\REVISAR2\DEVELOPMENT\PRIVATE\SVN\SSB\SDL\INCLUDE\SDL_CONFIG.H
D:\PARA REVISAR\REVISAR2\DEVELOPMENT\PRIVATE\SVN\SSB\SDL\INCLUDE\SDL_PLATFORM.H
D:\PARA REVISAR\REVISAR2\DEVELOPMENT\PRIVATE\SVN\SSB\SDL\INCLUDE\SDL_CONFIG_WIN32.H
C:\PROGRAM FILES (X86)\MICROSOFT VISUAL STUDIO 10.0\VC\INCLUDE\STDIO.H
C:\PROGRAM FILES (X86)\MICROSOFT VISUAL STUDIO 10.0\VC\INCLUDE\SWPRINTF.INL
C:\PROGRAM FILES (X86)\MICROSOFT VISUAL STUDIO 10.0\VC\INCLUDE\STDLIB.H
C:\PROGRAM FILES (X86)\MICROSOFT VISUAL STUDIO 10.0\VC\INCLUDE\LIMITS.H
C:\PROGRAM FILES (X86)\MICROSOFT VISUAL STUDIO 10.0\VC\INCLUDE\STDDEF.H
D:\PARA REVISAR\REVISAR2\DEVELOPMENT\PRIVATE\SVN\SSB\SDL\INCLUDE\BEGIN_CODE.H
C:\PROGRAM FILES (X86)\MICROSOFT VISUAL STUDIO 10.0\VC\INCLUDE\MALLOC.H
D:\PARA REVISAR\REVISAR2\DEVELOPMENT\PRIVATE\SVN\SSB\SDL\INCLUDE\CLOSE_CODE.H
D:\PARA REVISAR\REVISAR2\DEVELOPMENT\PRIVATE\SVN\SSB\SDL\INCLUDE\SDL_AUDIO.H
D:\PARA REVISAR\REVISAR2\DEVELOPMENT\PRIVATE\SVN\SSB\SDL\INCLUDE\SDL_ERROR.H
D:\PARA REVISAR\REVISAR2\DEVELOPMENT\PRIVATE\SVN\SSB\SDL\INCLUDE\SDL_ENDIAN.H
D:\PARA REVISAR\REVISAR2\DEVELOPMENT\PRIVATE\SVN\SSB\SDL\INCLUDE\SDL_MUTEX.H
D:\PARA REVISAR\REVISAR2\DEVELOPMENT\PRIVATE\SVN\SSB\SDL\INCLUDE\SDL_THREAD.H
D:\PARA REVISAR\REVISAR2\DEVELOPMENT\PRIVATE\SVN\SSB\SDL\INCLUDE\SDL_RWOPS.H
D:\PARA REVISAR\REVISAR2\DEVELOPMENT\PRIVATE\SVN\SSB\SDL\INCLUDE\SDL_CDROM.H
D:\PARA REVISAR\REVISAR2\DEVELOPMENT\PRIVATE\SVN\SSB\SDL\INCLUDE\SDL_CPUINFO.H
D:\PARA REVISAR\REVISAR2\DEVELOPMENT\PRIVATE\SVN\SSB\SDL\INCLUDE\SDL_EVENTS.H
D:\PARA REVISAR\REVISAR2\DEVELOPMENT\PRIVATE\SVN\SSB\SDL\INCLUDE\SDL_ACTIVE.H
D:\PARA REVISAR\REVISAR2\DEVELOPMENT\PRIVATE\SVN\SSB\SDL\INCLUDE\SDL_KEYBOARD.H
D:\PARA REVISAR\REVISAR2\DEVELOPMENT\PRIVATE\SVN\SSB\SDL\INCLUDE\SDL_KEYSYM.H
D:\PARA REVISAR\REVISAR2\DEVELOPMENT\PRIVATE\SVN\SSB\SDL\INCLUDE\SDL_MOUSE.H
D:\PARA REVISAR\REVISAR2\DEVELOPMENT\PRIVATE\SVN\SSB\SDL\INCLUDE\SDL_VIDEO.H
D:\PARA REVISAR\REVISAR2\DEVELOPMENT\PRIVATE\SVN\SSB\SDL\INCLUDE\SDL_JOYSTICK.H
D:\PARA REVISAR\REVISAR2\DEVELOPMENT\PRIVATE\SVN\SSB\SDL\INCLUDE\SDL_QUIT.H
D:\PARA REVISAR\REVISAR2\DEVELOPMENT\PRIVATE\SVN\SSB\SDL\INCLUDE\SDL_LOADSO.H
D:\PARA REVISAR\REVISAR2\DEVELOPMENT\PRIVATE\SVN\SSB\SDL\INCLUDE\SDL_TIMER.H
D:\PARA REVISAR\REVISAR2\DEVELOPMENT\PRIVATE\SVN\SSB\SDL\INCLUDE\SDL_VERSION.H
D:\PARA REVISAR\REVISAR2\DEVELOPMENT\PRIVATE\SVN\SSB\NFLIB\X86_64_PC\INCLUDE\NDS\DEBUG.H
D:\PARA REVISAR\REVISAR2\DEVELOPMENT\PRIVATE\SVN\SSB\NFLIB\X86_64_PC\INCLUDE\NDS\ARM9\CONSOLE.H
D:\PARA REVISAR\REVISAR2\DEVELOPMENT\PRIVATE\SVN\SSB\NFLIB\X86_64_PC\INCLUDE\NDS\ARM9\EXCEPTIONS.H
D:\PARA REVISAR\REVISAR2\DEVELOPMENT\PRIVATE\SVN\SSB\NFLIB\X86_64_PC\INCLUDE\NDS\ARM9\INPUT.H
D:\PARA REVISAR\REVISAR2\DEVELOPMENT\PRIVATE\SVN\SSB\NFLIB\X86_64_PC\INCLUDE\NDS\ARM9\SOUND.H
D:\PARA REVISAR\REVISAR2\DEVELOPMENT\PRIVATE\SVN\SSB\NFLIB\X86_64_PC\INCLUDE\NDS\ARM9\SPRITE.H
D:\PARA REVISAR\REVISAR2\DEVELOPMENT\PRIVATE\SVN\SSB\NFLIB\X86_64_PC\INCLUDE\NDS\ARM9\VIDEO.H
D:\PARA REVISAR\REVISAR2\DEVELOPMENT\PRIVATE\SVN\SSB\RENDER\X86_64_PC\INCLUDE\GRAPHICS.H
D:\PARA REVISAR\REVISAR2\DEVELOPMENT\PRIVATE\SVN\SSB\RENDER\INCLUDE\GRAPHICS_COMMON.H
D:\PARA REVISAR\REVISAR2\DEVELOPMENT\PRIVATE\SVN\SSB\CORE\INCLUDE\COMMON.H
D:\PARA REVISAR\REVISAR2\DEVELOPMENT\PRIVATE\SVN\SSB\NFLIB\INCLUDE\NF_LIB.H
D:\PARA REVISAR\REVISAR2\DEVELOPMENT\PRIVATE\SVN\SSB\NFLIB\INCLUDE\NF_DEFINES.H
D:\PARA REVISAR\REVISAR2\DEVELOPMENT\PRIVATE\SVN\SSB\NFLIB\INCLUDE\NF_BASIC.H
D:\PARA REVISAR\REVISAR2\DEVELOPMENT\PRIVATE\SVN\SSB\NFLIB\INCLUDE\NF_DRAFT.H
D:\PARA REVISAR\REVISAR2\DEVELOPMENT\PRIVATE\SVN\SSB\NFLIB\INCLUDE\NF_2D.H
D:\PARA REVISAR\REVISAR2\DEVELOPMENT\PRIVATE\SVN\SSB\NFLIB\INCLUDE\NF_TILEDBG.H
D:\PARA REVISAR\REVISAR2\DEVELOPMENT\PRIVATE\SVN\SSB\NFLIB\INCLUDE\NF_AFFINEBG.H
D:\PARA REVISAR\REVISAR2\DEVELOPMENT\PRIVATE\SVN\SSB\NFLIB\INCLUDE\NF_BITMAPBG.H
D:\PARA REVISAR\REVISAR2\DEVELOPMENT\PRIVATE\SVN\SSB\NFLIB\INCLUDE\NF_MIXEDBG.H
D:\PARA REVISAR\REVISAR2\DEVELOPMENT\PRIVATE\SVN\SSB\NFLIB\INCLUDE\NF_SPRITE256.H
D:\PARA REVISAR\REVISAR2\DEVELOPMENT\PRIVATE\SVN\SSB\NFLIB\INCLUDE\NF_TEXT.H
D:\PARA REVISAR\REVISAR2\DEVELOPMENT\PRIVATE\SVN\SSB\NFLIB\INCLUDE\NF_TEXT16.H
D:\PARA REVISAR\REVISAR2\DEVELOPMENT\PRIVATE\SVN\SSB\NFLIB\INCLUDE\NF_COLISION.H
D:\PARA REVISAR\REVISAR2\DEVELOPMENT\PRIVATE\SVN\SSB\NFLIB\INCLUDE\NF_SOUND.H
D:\PARA REVISAR\REVISAR2\DEVELOPMENT\PRIVATE\SVN\SSB\NFLIB\INCLUDE\NF_MEDIA.H
D:\PARA REVISAR\REVISAR2\DEVELOPMENT\PRIVATE\SVN\SSB\NFLIB\INCLUDE\NF_3D.H
D:\PARA REVISAR\REVISAR2\DEVELOPMENT\PRIVATE\SVN\SSB\NFLIB\INCLUDE\NF_SPRITE3D.H
D:\PARA REVISAR\REVISAR2\DEVELOPMENT\PRIVATE\SVN\SSB\CORE\INCLUDE\MEMORY.H
D:\PARA REVISAR\REVISAR2\DEVELOPMENT\PRIVATE\SVN\SSB\CORE\INCLUDE\STRINGS.H
D:\PARA REVISAR\REVISAR2\DEVELOPMENT\PRIVATE\SVN\SSB\CORE\INCLUDE\FILESYSTEM.H
D:\PARA REVISAR\REVISAR2\DEVELOPMENT\PRIVATE\SVN\SSB\CORE\INCLUDE\ASSETS.H
D:\PARA REVISAR\REVISAR2\DEVELOPMENT\PRIVATE\SVN\SSB\CORE\INCLUDE\MESSAGES.H
