^C:\USERS\ALMAMU\DESKTOP\SMASH_TMP\SMASH\VS2010\DEBUG\OUTPUT\RENDER\GRAPHICS.OBJ
C:\WINDOWS\SYSTEM32\TZRES.DLL
C:\USERS\ALMAMU\DESKTOP\SMASH_TMP\SMASH\VS2010\DEBUG\OUTPUT\NFLIB\NFLIB.LIB
C:\USERS\ALMAMU\DESKTOP\SMASH_TMP\SMASH\SDL\LIB\X86\SDL.LIB
C:\USERS\ALMAMU\DESKTOP\SMASH_TMP\SMASH\SDL\LIB\X86\SDLMAIN.LIB
C:\USERS\ALMAMU\DESKTOP\SMASH_TMP\SMASH\VS2010\DEBUG\OUTPUT\RENDER\GRAPHICS.OBJ
C:\WINDOWS\GLOBALIZATION\SORTING\SORTDEFAULT.NLS
C:\PROGRAM FILES (X86)\MICROSOFT VISUAL STUDIO 10.0\VC\BIN\3082\LINKUI.DLL
^C:\DEVELOPMENT\SUPERSMASHBROSDS\VS2010\DEBUG\OUTPUT\RENDER\GRAPHICS.OBJ
C:\WINDOWS\SYSTEM32\TZRES.DLL
C:\DEVELOPMENT\SUPERSMASHBROSDS\VS2010\DEBUG\OUTPUT\NFLIB\NFLIB.LIB
C:\DEVELOPMENT\SUPERSMASHBROSDS\SDL\LIB\X86\SDL.LIB
C:\DEVELOPMENT\SUPERSMASHBROSDS\SDL\LIB\X86\SDLMAIN.LIB
C:\DEVELOPMENT\SUPERSMASHBROSDS\VS2010\DEBUG\OUTPUT\RENDER\GRAPHICS.OBJ
C:\WINDOWS\GLOBALIZATION\SORTING\SORTDEFAULT.NLS
C:\PROGRAM FILES (X86)\MICROSOFT VISUAL STUDIO 10.0\VC\BIN\3082\LINKUI.DLL
^C:\DEVELOPMENT\PRIVATE\SVN\SSB\VS2010\DEBUG\OUTPUT\RENDER\GRAPHICS.OBJ
C:\WINDOWS\SYSTEM32\TZRES.DLL
C:\DEVELOPMENT\PRIVATE\SVN\SSB\VS2010\DEBUG\OUTPUT\NFLIB\NFLIB.LIB
C:\DEVELOPMENT\PRIVATE\SVN\SSB\SDL\LIB\X86\SDL.LIB
C:\DEVELOPMENT\PRIVATE\SVN\SSB\SDL\LIB\X86\SDLMAIN.LIB
C:\DEVELOPMENT\PRIVATE\SVN\SSB\VS2010\DEBUG\OUTPUT\RENDER\GRAPHICS.OBJ
C:\WINDOWS\GLOBALIZATION\SORTING\SORTDEFAULT.NLS
C:\PROGRAM FILES (X86)\MICROSOFT VISUAL STUDIO 10.0\VC\BIN\3082\LINKUI.DLL
^D:\PARA REVISAR\REVISAR2\DEVELOPMENT\PRIVATE\SVN\SSB\VS2010\DEBUG\OUTPUT\RENDER\GRAPHICS.OBJ
C:\WINDOWS\SYSTEM32\TZRES.DLL
D:\PARA REVISAR\REVISAR2\DEVELOPMENT\PRIVATE\SVN\SSB\VS2010\DEBUG\OUTPUT\NFLIB\NFLIB.LIB
D:\PARA REVISAR\REVISAR2\DEVELOPMENT\PRIVATE\SVN\SSB\SDL\LIB\X86\SDL.LIB
D:\PARA REVISAR\REVISAR2\DEVELOPMENT\PRIVATE\SVN\SSB\SDL\LIB\X86\SDLMAIN.LIB
D:\PARA REVISAR\REVISAR2\DEVELOPMENT\PRIVATE\SVN\SSB\VS2010\DEBUG\OUTPUT\RENDER\GRAPHICS.OBJ
C:\WINDOWS\GLOBALIZATION\SORTING\SORTDEFAULT.NLS
C:\PROGRAM FILES (X86)\MICROSOFT VISUAL STUDIO 10.0\VC\BIN\3082\LINKUI.DLL
