﻿Compilación iniciada a las 04/06/2018 10:43:50.
     1>Proyecto "D:\Para revisar\revisar2\development\private\svn\ssb\vs2010\render\render.vcxproj" en el nodo 2 (build destinos).
     1>InitializeBuildStatus:
         Se creará "D:\Para revisar\revisar2\development\private\svn\ssb\vs2010\Debug\Output\render\render.unsuccessfulbuild" porque se especificó "AlwaysCreate".
       ClCompile:
         Todas las salidas están actualizadas.
       Lib:
         Todas las salidas están actualizadas.
         render.vcxproj -> D:\Para revisar\revisar2\development\private\svn\ssb\vs2010\Debug\Output\render\render.lib
       FinalizeBuildStatus:
         Se eliminará el archivo "D:\Para revisar\revisar2\development\private\svn\ssb\vs2010\Debug\Output\render\render.unsuccessfulbuild".
         Aplicando tarea Touch a "D:\Para revisar\revisar2\development\private\svn\ssb\vs2010\Debug\Output\render\render.lastbuildstate".
     1>Compilación del proyecto terminada "D:\Para revisar\revisar2\development\private\svn\ssb\vs2010\render\render.vcxproj" (build destinos).

Compilación correcta.

Tiempo transcurrido 00:00:00.03
